1 10 20
100 200 125
201 210 89
900 1000 174
26255 43298 324
35367 17595 311
15713 21670 279
30360 34361 311
60417 28075 340
87880 65950 351
77852 61378 351
39217 42798 306
82438 27197 351
2397 93110 351
24592 1464 282
7040 36970 324
97174 63650 351
24138 64176 340
33728 68349 340
80570 25745 351
52718 93925 351
22540 26558 282
87883 48823 351
11682 11172 237
66529 12745 340
94108 69543 351
69690 55737 335
99600 91056 333
18807 36404 324
96447 40466 351
1564 90806 351
86786 62044 351
16640 45878 324
99201 80476 333
39070 7118 324
41095 62204 340
88813 35951 351
50198 43788 314
76822 45202 340
69789 43802 340
85743 1767 351
19821 98121 351
22002 96168 351
6818 95200 351
50162 38252 314
3614 75311 340
14041 15700 271
58975 80170 351
59771 39679 340
62558 97463 351
79088 27220 351
66353 2593 340
47828 97860 351
67917 50816 340
87615 10390 351
23922 93921 351
17939 5061 279
56780 66660 335
77656 96905 338
72669 29405 340
44063 4134 324
53038 47031 340
85137 91825 333
67690 96980 351
83585 92138 333
53919 96851 351
59442 49933 340
53781 7846 340
3191 71685 340
75197 99964 351
19590 35830 324
87093 71233 351
73015 70115 325
29436 85223 351
84961 81226 320
13586 5120 276
57859 50395 340
75156 28302 340
23198 81288 351
78296 94270 338
27225 17762 308
37224 53981 340
85787 34100 351
29491 92365 351
3430 47508 324
27526 29881 272
89904 36339 351
32953 93226 351
51384 82628 351
28030 76372 340
44108 88840 351
59778 13330 340
22267 18294 274
56654 41373 340
79248 46633 351
61167 60676 335
57195 91622 351
19339 28369 308
44039 4963 324
41949 82321 351
71318 48455 340
98668 7189 351
87992 94550 333
38175 84495 351
95988 70401 351
59436 11713 340
32724 88041 351
77053 88179 338
5908 64637 340
31195 96578 351
78435 24977 351
3992 65432 340
94546 90146 333
16191 99979 351
95259 59968 351
33672 30549 285
17652 55011 340
35005 17989 311
13270 46326 324
78820 9536 351
6033 33399 308
86658 51737 351
96314 54622 351
92591 20498 351
67448 38184 340
15392 62380 340
88150 11838 351
57764 97186 351
62221 13618 340
84081 87698 333
39114 72070 340
63197 21321 340
46404 94904 351
19309 66600 340
85737 30319 351
85045 28567 351
59780 51216 340
30626 28744 272
90707 53647 351
99222 26602 351
96499 64480 351
98110 44097 351
741 13339 276
57991 7232 340
73132 94819 351
69675 55036 335
63368 23805 340
471 27147 308
75369 14013 340
32373 29519 285
54380 28811 340
108 43097 324
65717 31835 340
55176 48434 340
52910 36073 340
10254 18017 279
7550 12806 268
4198 3311 238
63817 36873 340
72688 6419 340
25774 69422 340
7303 6049 262
47551 28528 324
16948 74161 340
87322 59474 351
80478 2549 351
20087 1302 279
87696 6490 351
49557 15533 324
87325 8610 351
65502 48191 340
12385 61695 340
42894 16730 324
37743 82771 351
49921 57903 340
79250 43644 351
55662 32992 340
30593 86384 351
87645 45394 351
13768 36878 324
38992 29641 324
33505 86888 351
43955 90008 351
17708 1878 279
87754 73722 351
15208 2216 276
34011 96941 351
26232 11516 282
70632 80069 351
94560 20400 351
47663 18331 324
82850 48551 351
9761 81255 351
92269 88680 333
9314 54780 340
99151 57476 351
68344 2794 340
63704 30473 340
52900 13400 340
47397 90623 351
36279 6913 324
21751 78634 351
88875 702 351
25119 1538 282
