424922 428918 374
621129 875342 525
741587 785354 468
593562 995145 525
986656 994821 396
311075 907214 525
876742 992157 507
863276 999984 507
288068 572753 470
102327 571993 470
305750 951711 525
346014 411842 449
119678 937458 525
489585 980212 525
692754 964099 525
115787 252546 443
162159 980353 525
559532 646493 509
445598 998212 525
903878 943834 507
491303 786215 509
733429 851025 525
372489 531086 470
984942 997351 427
625178 912123 525
874444 936102 476
265280 391128 441
378938 606894 470
615038 940169 525
297487 341017 384
877847 886425 370
493000 798968 509
519347 628910 509
763465 854555 525
684464 907590 525
795379 862678 525
50380 689098 509
851076 901867 445
816226 861012 525
234284 963020 525
671082 700500 442
722844 886811 525
400581 678236 509
53181 893917 525
537188 553908 452
163218 519309 470
751257 885714 525
455055 891087 525
590087 745642 509
40562 846548 525
460810 595529 470
795877 979807 525
270496 276517 363
903029 968333 507
860600 922681 476
806158 835026 450
812394 906998 525
182876 624115 470
588204 949847 525
897351 981060 507
505528 651850 509
817433 843322 525
968669 973567 458
648630 745533 504
251334 693171 509
438553 615077 470
569719 614218 434
258736 338911 407
656000 659543 429
705859 972112 525
46548 669932 509
594540 606647 403
884583 966156 507
992088 992577 321
571747 740738 509
792294 910973 525
326472 458547 449
59819 560474 470
403675 418560 449
601668 956383 525
901860 989534 507
914346 918802 383
195848 780126 509
262645 837351 509
259820 344248 407
405951 876512 525
637946 748677 504
423179 554054 470
998975 999415 396
694451 906150 525
389869 775338 509
125900 856044 525
411384 658410 509
641866 781605 504
156158 785714 509
30950 305174 443
307401 635025 509
417431 607848 470
245212 519268 470
974216 980321 383
723441 948583 525
860920 989304 507
291019 325760 384
84296 323054 443
95760 863643 525
520619 741522 509
332250 572175 470
762777 923850 525
963152 993849 458
422209 575275 470
847840 911178 476
594609 713684 509
244304 707789 509
372907 770494 509
651246 713487 504
6905 850504 525
40134 340956 443
48056 607047 470
767506 959127 525
59778 307032 443
553950 651005 509
226049 945017 525
538206 739669 509
769318 916721 525
480551 512777 470
540535 830996 509
132339 634653 509
530659 800954 509
592623 807297 509
276673 715055 509
266516 654277 509
786030 932442 525
33772 506380 449
913424 926597 445
426372 583952 470
647549 743281 504
76414 534985 470
873091 957843 507
911422 978871 507
901868 906367 445
847678 924190 476
172023 532961 470
742895 980924 525
301452 427745 449
964832 976862 458
441411 564051 470
973832 981895 427
635921 728831 504
905765 943890 507
