155379 423107 449
623267 482853 470
352342 512874 470
428140 883931 525
756031 564272 509
974976 220919 525
817130 7831 509
53983 614783 470
438818 448253 356
744452 506780 509
945611 385671 525
993105 235552 525
904907 959872 507
804454 322007 509
78937 435817 449
778234 200541 509
80585 234650 443
955284 724032 525
884857 492403 525
156117 281856 443
251435 927143 525
308984 241760 407
869130 878712 432
760357 301941 509
290858 864266 525
376014 906347 525
799782 133414 509
703465 635754 442
866993 912679 476
200228 588805 470
264147 642755 509
820331 293604 509
629038 435649 509
29134 413162 449
353387 294394 441
743399 45834 509
107443 223559 386
132550 900313 525
987621 948205 458
966155 128410 525
480221 976757 525
24753 339102 443
34182 490868 449
160064 877602 525
785049 16515 509
762810 97688 509
39119 291334 443
353724 157449 443
548231 787227 509
798689 439782 509
676942 332570 509
186870 566346 470
943703 217016 525
989255 663303 525
638199 197128 509
27606 949253 525
262987 161027 443
579702 327517 470
713643 401565 509
251921 986002 525
915548 506954 525
259438 59133 443
89698 50104 351
684064 687964 398
369059 721487 509
126190 42066 354
553876 344614 470
340800 893127 525
649853 600308 509
436020 816074 509
912670 222032 525
171432 875182 525
124252 89314 354
78472 402318 443
56393 170065 383
432403 11840 449
858688 409931 525
326788 565238 470
926074 50858 525
45860 850898 525
733099 471328 509
482386 25619 449
640655 956328 525
459015 651088 509
824710 456336 509
331825 636496 509
630399 611182 509
230334 198395 386
650358 572654 509
243478 287186 407
548978 30698 470
870125 351443 525
866377 6549 525
129528 8338 354
310692 346014 441
276787 584481 470
732513 342167 509
754819 792657 468
903567 361588 525
949502 524310 525
266239 376042 441
594765 263829 470
243563 435296 449
211616 525800 470
90964 170751 383
71226 974401 525
440576 28735 449
903617 297740 525
439580 941736 525
55537 515323 470
313527 430333 449
378593 473771 449
180522 18824 383
60197 880245 525
683662 414098 509
489769 382003 449
35905 147499 375
411810 718541 509
853606 614232 525
534879 327041 470
663937 980840 525
156243 19152 383
416029 945183 525
545678 597741 452
633763 628437 385
283780 903114 525
141383 937330 525
450685 987968 525
868187 718735 525
445630 746357 509
629032 40827 509
748038 458397 509
4738 369880 443
464557 166245 449
396930 882934 525
935520 545135 525
677080 598384 509
103752 59587 351
43050 215621 383
567253 145808 470
651044 264745 509
696094 822163 504
770596 827739 468
528057 522344 408
546894 331550 470
627842 13099 509
37248 470568 449
685863 148423 509
86684 506416 449
218074 544823 470
268289 979892 525
305485 560106 470
948611 617624 525
970360 125316 525
343696 156394 443
789718 203056 509
305453 768539 509
845019 957077 507
55326 327191 443
144057 825382 509
863237 487826 525
663341 300064 509
641957 53252 509
64088 525837 470
169082 186720 365
941490 882161 507
762122 4807 509
293155 896086 525
357566 919466 525
375306 488197 449
847854 277194 525
884191 639816 525
903148 81035 525
364309 183973 443
964727 425317 525
641520 102411 509
33364 675 308
415808 203133 449
251919 691104 509
131076 554157 470
444773 822659 509
824886 997108 525
296991 234903 407
563535 951668 525
115551 558515 470
964393 330367 525
364079 23419 443
34393 915994 525
347999 24398 443
275583 25351 443
817303 897432 525
546 839039 525
324890 462542 449
855892 7205 525
164236 45432 383
101657 509399 449
667391 109616 509
149446 737002 509
428881 628479 509
49737 623752 470
