1 10 20
100 200 125
201 210 89
900 1000 174
1 1 1
1 2 2
2 19 21
15 16 18
135 199 125
99 101 26
2 4 8
180 360 144
159 333 144
1000 1001 143
57 1823 182
934 11881 268
58 3245 217
9090 90909 351
2317 774812 509
9346 627381 509
4237 823744 509
49 929385 525
27 32 112
234 349534 443
45 238 128
35 83 116
3 385 144
9596 28282 308
94 58485 340
84943 283299 443
349 938 179
4 23 21
19 8488 262
88 888 179
864 8234 262
4234 234234 443
58424 83852 351
342 7717 262
945 989 143
87384 289999 443
3845 7237 262
856 27347 308
8485 28344 308
2374 2377 165
10099 10100 87
823874 934827 525
27374 84752 351
7347 7349 164
737 8347 262
734 62121 340
83 99 119
9090 92391 351
7247 73742 340
9485 83741 351
7475 16237 276
6263 66128 340
834 1222 182
127 626 144
21 50 112
641 727 171
7234 6162 262
257 8436 262
234 3245 217
54 334 144
83454 92323 333
74375 77834 351
623632 636477 509
782341 872443 525
987234 990909 352
8234 8734 234
42317 82342 351
8345 8734 234
7322 17274 276
293 734 171
74 9683 262
1000 1099 169
999 1000 112
999 999 50
412 1248 182
348 844 171
1634 8374 262
364 937 179
273 280 92
7473 8473 252
9484 10000 242
123 123123 354
1234 12345 268
321 321123 443
48163 84757 351
12 999342 525
12214 242942 443
57 89 116
8852 9199 247
1800 3600 217
17 33 112
450 899 179
4000 7999 262
8 15 20
1720 8000 262
57 21831 279
39 849 171
1000 1000 112
18012 19275 261
9999 10001 180
481 912 179
512 720 171
1 590 144
746 5383 238
12 13 10
90 270 128
2 1 2
623 489 142
22 21 16
1274 3 182
15 12 18
180 123 125
84124 1222 351
5374 154 238
10000 9999 92
98234 23834 351
237 123 128
90909 909 351
841 111 171
903 238 179
4942 1231 238
74803 67429 325
10101 1010 262
63841 98 340
4000 2000 238
37471 848 324
91 90 93
212 210 40
800 401 171
280 140 128
6000 3100 238
871 89 179
938411 508396 525
98348 72374 351
73475 37472 340
83485 233 351
8225 723 262
27 20 112
7234 883 262
72374 7237 340
98344 723 351
63 1 113
835 147 171
8385 8374 159
837457 638466 504
6364 1262 262
734374 36478 509
757723 737471 424
82745 63632 351
83485 23633 351
636 364 142
834365 6236 509
94945 72373 351
1001 282 179
7347 3745 262
9485 7374 260
7374 62 262
84548 12345 351
458 234 144
7234 623 262
917 162 179
823 312 171
2438 1238 183
2377 631 183
8385 732 262
299 238 123
8234 7584 252
7237 2323 262
1626 37 182
12 3 20
37 1 112
8248 87 262
734 6 171
4774 2177 238
929 273 179
828579 354875 509
934979 734843 525
237337 8475 443
72475 7237 340
62392 85 340
23477 8471 279
437457 273 449
834 599 171
300 299 118
8475 777 262
273 81 128
999 777 179
737238 66636 509
25 13 24
1200 608 182
1900 1000 182
9279 3842 262
1399 700 182
7458 920 262
364 122 144
31999 16000 308
9481 731 262
73948 22222 340
5374 11 238
1 999999 525
999999 1 525
